INFO  02:54:50 Server started..
INFO  02:54:54 {"Id":882382368,"Name":"My Message","Value":-1956076416}
INFO  02:54:54 {"Id":882382368,"Name":"My Message","Value":-1956076416}
INFO  02:54:54 {"Id":882382368,"Name":"My Message","Value":-1956076416}
INFO  02:54:54 {"Id":882382368,"Name":"My Message","Value":-1956076416}
INFO  02:54:54 {"Id":882382368,"Name":"My Message","Value":-1956076416}
INFO  02:54:54 {"Id":882382368,"Name":"My Message","Value":-1956076416}
INFO  02:54:54 {"Id":882382368,"Name":"My Message","Value":-1956076416}
INFO  02:54:54 {"Id":1652910296,"Name":"My Message","Value":2082272352}
INFO  02:54:54 {"Id":1652910296,"Name":"My Message","Value":2082272352}
INFO  02:54:54 {"Id":882382368,"Name":"My Message","Value":-1956076416}
